<svg xmlns="http://www.w3.org/2000/svg" width="140" height="140" viewBox="0 0 140 140">
  <g fill="none" fill-rule="evenodd">
    <rect width="140" height="140" fill="#EEF8FF"/>
    <g transform="translate(17 7)">
      <rect width="28.909" height="35.954" x="38.545" y="47.939" fill="#C9E0F0"/>
      <path fill="#CCE3F3" d="M53,62.3206562 C38.3878284,62.3206562 26.5,50.4927462 26.5,35.9542247 L26.5,26.3664315 C26.5,11.82791 38.3878284,0 53,0 C67.6121715,0 79.5,11.82791 79.5,26.3664315 L79.5,35.9542247 C79.5,50.4927462 67.6121715,62.3206562 53,62.3206562 Z"/>
      <path fill="#C1DAEC" d="M99.3738236,85.8026741 L67.4545455,71.9084494 C63.3889104,74.9055126 58.4114853,76.702346 53,76.702346 C47.5885147,76.702346 42.6112366,74.9055126 38.5894192,71.9084494 L38.2444651,72.0581125 L6.63367514,85.8026741 C2.97004556,87.3957142 0,91.9221778 0,95.9000235 L0,103.061755 C0,104.389411 1.0836792,105.465726 2.41320805,105.465726 C2.41320805,105.465726 17.5238796,125.019854 53,125.402515 C88.4761204,125.785175 103.586939,105.465726 103.586939,105.465726 C104.919703,105.465726 106,104.416183 106,103.061755 L106,95.9000235 C106,91.9164721 103.039365,87.3983475 99.3738236,85.8026741 Z"/>
    </g>
  </g>
</svg>
