<svg xmlns="http://www.w3.org/2000/svg">
  <defs>

    <symbol id="directory" viewBox="0 0 32 32" >
      <g fill="none" fill-rule="evenodd">
        <path stroke-width="2" d="M22,1 L25,1 C26.1,1 27,1.84 27,2.86666667 L27,27.1333333 C27,28.16 26.1,29 25,29 L22,29"/>
        <rect width="19" height="28" x="3" y="1" stroke-width="2"/>
        <!-- <polygon fill="#FFFFFF" stroke-width="0" points="10.194 21.089 10.194 15.869 16.438 15.869 16.438 14.002 10.194 14.002 10.194 10.867 16.569 10.867 16.569 9 8 9 8 21.089"/> -->
      </g>
    </symbol>

    <symbol id="directory-faculty" viewBox="0 0 32 32" >
      <g fill="none" fill-rule="evenodd">
        <path stroke-width="2" d="M22,1 L25,1 C26.1,1 27,1.84 27,2.86666667 L27,27.1333333 C27,28.16 26.1,29 25,29 L22,29"/>
        <rect width="19" height="28" x="3" y="1" stroke-width="2"/>
        <text x="9" y="20">F</text>
      </g>
    </symbol>

    <symbol id="directory-alumni" viewBox="0 0 32 32" >
      <g fill="none" fill-rule="evenodd">
        <path stroke-width="2" d="M22,1 L25,1 C26.1,1 27,1.84 27,2.86666667 L27,27.1333333 C27,28.16 26.1,29 25,29 L22,29"/>
        <rect width="19" height="28" x="3" y="1" stroke-width="2"/>
        <text x="9" y="20">A</text>
      </g>
    </symbol>

    <symbol id="dashboard" viewBox="0 0 32 32">
      <g fill="none" fill-rule="evenodd" stroke-width="2" transform="translate(1 1)">
        <path d="M11 5.6C12.2 5.1 13.6 4.8 15 4.8 20.6 4.8 25.2 9.4 25.2 15M4.8 15C4.8 13.6 5.1 12.2 5.6 11M12.9 12.9L7.4 7.4"/>
        <circle cx="15" cy="15" r="15"/>
        <circle cx="15" cy="15" r="3"/>
      </g>
    </symbol>

    <symbol id="profile" viewBox="0 0 32 32">
      <g fill="none" fill-rule="evenodd" stroke-width="2" transform="translate(1 1.778)">
        <path d="M18 11L25 11M18 16L25 16"/>
        <circle cx="9" cy="10" r="2"/>
        <path d="M14,19 L4,19 L4,19 C4,16.791 5.791,15 8,15 L10,15 C12.209,15 14,16.791 14,19 L14,19 L14,19 Z"/>
        <path d="M24,0 C24,1.657 22.657,3 21,3 C19.343,3 18,1.657 18,0 L12,0 C12,1.657 10.657,3 9,3 C7.343,3 6,1.657 6,0 L0,0 L0,24 L30,24 L30,0 L24,0 L24,0 Z"/>
      </g>
    </symbol>

    <symbol id="teaching" viewBox="0 0 32 32">
      <g fill="none" fill-rule="evenodd" stroke-width="2" transform="translate(1 1.556)">
        <path d="M15.8 1.6L21 6M9 6L14.2 1.6"/>
        <polyline points="23 26 23 23 16 23 16 26"/>
        <circle cx="15" cy="1" r="1"/>
        <path d="M0 6L4 10M30 6L26 10M30 30L26 26M0 30L4 26"/>
        <rect width="30" height="24" y="6"/>
        <rect width="22" height="16" x="4" y="10"/>
      </g>
    </symbol>

    <symbol id="research" viewBox="0 0 32 32">
      <g fill="none" fill-rule="evenodd" stroke-width="2" transform="translate(1 1.333)">
        <path d="M6.3 19L17.7 19M2.7 30L21.2 30C22.8 30 23.8 28.2 22.9 26.9L15 15 15 4 18 4 18 0 6 0 6 4 9 4 9 15 1.1 26.9C.2 28.2 1.1 30 2.7 30L2.7 30z"/>
      </g>
    </symbol>

    <symbol id="publications" viewBox="0 0 32 32">
      <g fill="none" fill-rule="evenodd" stroke-width="2" transform="translate(1 1.111)">
        <polyline points="27 4 30 4 30 26 0 26 0 4 3 4"/>
        <path d="M15 4L15 22M15 4C15 4 12.833 0 3 0L3 18C9.937 18 15 22 15 22 15 22 19.812 18 27 18L27 0C17.083 0 15 4 15 4L15 4z"/>
      </g>
    </symbol>

    <symbol id="lab-resources" viewBox="0 0 32 32">
      <g fill="none" fill-rule="evenodd" stroke-width="2" transform="translate(1 .889)">
        <path d="M5.9 6.9L11 4.8M11 22L21 22M5.9 6.9C2.4 8.7 0 11.8 0 16L0 19"/>
        <rect width="24" height="4" y="26"/>
        <polygon points="15.1 14.8 10 16.8 4.3 2.9 9.4 .8 9.4 .8"/>
        <path d="M6,26 L0,26 L0,19 L0,19 C3.3,19 6,21.7 6,25 L6,26 L6,26 Z"/>
      </g>
    </symbol>

    <symbol id="service" viewBox="0 0 32 32">
      <g fill="none" fill-rule="evenodd" transform="translate(2 1.667)">
        <polyline stroke-width="2" points="22 7 28 13 25 16 19 10"/>
        <path stroke-width="2" d="M9,19 L0,19 C0,19 1,24 9,24"/>
        <rect width="12.7" height="5.7" x="12.15" y="3.721" stroke-width="2" transform="rotate(-45 18.5 6.57)"/>
        <path stroke-width="2" d="M6 15L2 15M7.5 11.5L4.6 8.6M28 24L28 19 9 19 9 29 23 29C23 26.2 25.2 24 28 24L28 24z"/>
      </g>
    </symbol>

    <symbol id="funding" viewBox="0 0 32 32">
      <g fill="none" fill-rule="evenodd" stroke-width="2" transform="translate(1 1.444)">
        <path d="M22,7 L8,7 C8,9.3 6.3,11 4,11 L4,17 C6.3,17 8,18.7 8,21 L22,21 C22,18.7 23.7,17 26,17 L26,11 C23.7,11 22,9.3 22,7 L22,7 Z"/>
        <polyline points="2 3 2 0 28 0 28 3"/>
        <rect width="30" height="22" y="3"/>
        <circle cx="15" cy="14" r="3"/>
      </g>
    </symbol>

    <symbol id="awards" viewBox="0 0 32 32">
      <g fill="none" fill-rule="evenodd" stroke-width="2" transform="translate(2 1.222)">
        <path d="M20.5,5 L7.5,5"/>
        <polyline points="7.3 15 0 5 4 0 24 0 28 5 20.7 15"/>
        <path d="M4 0L12.4 12.1M24 0L15.6 12.1"/>
        <circle cx="14" cy="21" r="9"/>
        <polygon points="9 19.6 12.5 19.1 14 16 15.5 19.1 19 19.6 16.5 22.1 17 25.5 14 23.9 10.9 25.5 11.5 22"/>
      </g>
    </symbol>

    <symbol id="news" viewBox="0 0 32 32">
      <g fill="none" fill-rule="evenodd" stroke-width="2" transform="translate(1 1)">
        <path d="M6,17 L0,17 L0,27 C0,28.7 1.3,30 3,30"/>
        <path d="M6 0L6 27C6 28.7 4.7 30 3 30L27 30C28.7 30 30 28.7 30 27L30 0 6 0 6 0zM21 5L25 5M21 10L25 10M11 15L25 15"/>
        <rect width="6" height="5" x="11" y="5"/>
        <path d="M15 25L11 25M15 20L11 20"/>
        <rect width="6" height="5" x="19" y="20"/>
      </g>
    </symbol>

    <symbol id="" viewBox="0 0 32 32">

    </symbol>

    <symbol id="" viewBox="0 0 32 32">

    </symbol>


  </defs>
</svg>
