<svg xmlns="http://www.w3.org/2000/svg" width="28" height="30" viewBox="0 0 28 30">
  <g fill="#FFFEFE" fill-rule="evenodd">
    <path fill-rule="nonzero" d="M27.0666667 4.6875L24.2666667 4.6875C23.7066667 4.6875 23.3333333 5.0625 23.3333333 5.625L23.3333333 9.375C23.3333333 9.9375 23.7066667 10.3125 24.2666667 10.3125L27.0666667 10.3125C27.6266667 10.3125 28 9.9375 28 9.375L28 5.625C28 5.0625 27.6266667 4.6875 27.0666667 4.6875zM27.0666667 11.25L24.2666667 11.25C23.7066667 11.25 23.3333333 11.625 23.3333333 12.1875L23.3333333 15.9375C23.3333333 16.5 23.7066667 16.875 24.2666667 16.875L27.0666667 16.875C27.6266667 16.875 28 16.5 28 15.9375L28 12.1875C28 11.625 27.6266667 11.25 27.0666667 11.25zM1.86666667 0L.933333333 0C.373333333 0 0 .375 0 .9375L0 29.0625C0 29.625.373333333 30 .933333333 30L1.86666667 30C2.42666667 30 2.8 29.625 2.8 29.0625L2.8.9375C2.8.375 2.42666667 0 1.86666667 0z"/>
    <path fill-rule="nonzero" d="M22.3066667,0 C23.8933333,0 25.2,1.21875 25.2,2.8125 L25.2,27.1875 C25.2,28.78125 23.8933333,30 22.3066667,30 L5.6,30 C5.04,30 4.66666667,29.625 4.66666667,29.0625 L4.66666667,0.9375 C4.66666667,0.375 5.04,0 5.6,0 L22.3066667,0 Z M21,22 L15.6904376,9 L14.3095624,9 L9,22 L10.2836305,22 L11.5672609,18.8035982 L18.4327391,18.8035982 L19.7163695,22 L21,22 Z"/>
    <polygon points="18.063 17.79 11.937 17.79 14.99 10.189"/>
  </g>
</svg>
