<svg xmlns="http://www.w3.org/2000/svg" width="30" height="30" viewBox="0 0 30 30">
  <g fill="#FFFEFE" fill-rule="evenodd">
    <path fill-rule="nonzero" d="M29.0625 3.75L24.2022515 3.75C24.3073082 3.45531459 24.375 3.14283375 24.375 2.8125 24.375 1.26159666 23.1134033 0 21.5625 0 19.7026062 0 18.5221481 1.20431897 17.8125 2.36240391 17.1028519 1.20431897 15.9223938 0 14.0625 0 12.5115967 0 11.25 1.26159666 11.25 2.8125 11.25 3.14283375 11.317749 3.45531459 11.4228058 3.75L6.5625 3.75C6.0443115 3.75 5.625 4.16976928 5.625 4.6875L5.625 7.5C5.625 8.01773072 6.0443115 8.4375 6.5625 8.4375L29.0625 8.4375C29.5806885 8.4375 30 8.01773072 30 7.5L30 4.6875C30 4.16976928 29.5806885 3.75 29.0625 3.75zM21.5625 1.875C22.0797729 1.875 22.5 2.29568484 22.5 2.8125 22.5 3.32931516 22.0797729 3.75 21.5625 3.75L19.1784667 3.75C19.6124268 2.89215084 20.3768921 1.875 21.5625 1.875zM13.125 2.8125C13.125 2.29568484 13.5452271 1.875 14.0625 1.875 15.2481079 1.875 16.0125732 2.89215084 16.4465333 3.75L14.0625 3.75C13.5452271 3.75 13.125 3.32931516 13.125 2.8125zM14.3307495 27.0835877C13.6102295 27.4118043 12.6727295 27.3756409 11.8624878 27.0085145L1.875 21.9250489 1.875 16.875 5.625 16.875C7.50732422 16.875 9.54437259 17.8820801 10.4699708 19.2700195 10.6439209 19.5309448 10.9368896 19.6875 11.25 19.6875L15 19.6875C16.0699082 19.6875 17.1655655 20.5677795 17.6010132 21.5625L10.3125 21.5625C9.7943115 21.5625 9.375 21.9822693 9.375 22.5 9.375 23.0177307 9.7943115 23.4375 10.3125 23.4375L18.75 23.4375C19.2681885 23.4375 19.6875 23.0177307 19.6875 22.5 19.6875 22.1836853 19.6481323 21.8696594 19.5748901 21.5625L24.375 21.5625C25.5596924 21.5625 26.2573242 21.8156433 26.6629028 22.0811463L14.3307495 27.0835877zM29.0441895 22.315979C29.0294838 22.2410774 28.750534 20.9883499 27.1875 20.2399635L27.1875 10.3125 8.4375 10.3125 8.4375 15.5377007C7.53404616 15.1983262 6.57194137 15 5.625 15L.9375 15C.4193115 15 0 15.4197693 0 15.9375L0 22.5C0 22.8524781.197753906 23.1756592.512695312 23.3354187L11.0494995 28.6972046C11.7681885 29.0240479 12.522583 29.1870117 13.2495117 29.1870117 13.8922119 29.1870117 14.513855 29.0597534 15.0714112 28.8061523L28.4774781 23.3688354C28.8949585 23.1994629 29.1329956 22.7577209 29.0441895 22.315979z"/>
  </g>
</svg>
