<svg xmlns="http://www.w3.org/2000/svg" width="30" height="25" viewBox="0 0 30 25">
  <g fill="#FFFEFE">
    <path d="M28.1809091,9.09090909 C28.5054545,9.09090909 28.82,8.91636364 28.9845455,8.61 C29.2209091,8.16727273 29.0527273,7.61636364 28.61,7.38 L14.9736364,0.107272727 C14.7054545,-0.0354545455 14.3863636,-0.0354545455 14.1181818,0.107272727 L0.481818182,7.38 C0.0390909091,7.61636364 -0.129090909,8.16727273 0.107272727,8.61 C0.344545455,9.05181818 0.891818182,9.22090909 1.33818182,8.98454545 L14.5454545,1.93909091 L27.7536364,8.98363636 C27.8909091,9.05636364 28.0372727,9.09090909 28.1809091,9.09090909 Z"/>
    <ellipse cx="22.727" cy="14.545" rx="3.636" ry="3.636"/>
    <ellipse cx="6.364" cy="14.545" rx="3.636" ry="3.636"/>
    <path d="M11.3863636 20.3936364C10.3827273 19.7990909 8.69545455 19.0909091 6.36363636 19.0909091 4 19.0909091 2.32181818 19.7963636 1.32909091 20.39.51 20.88 0 21.7772727 0 22.7336364L0 23.6363636C0 24.1390909.406363636 24.5454545.909090909 24.5454545L11.8181818 24.5454545C12.3209091 24.5454545 12.7272727 24.1390909 12.7272727 23.6363636L12.7272727 22.7436364C12.7272727 21.7818182 12.2136364 20.8818182 11.3863636 20.3936364zM27.75 20.3936364C26.7463636 19.7990909 25.0590909 19.0909091 22.7272727 19.0909091 20.3636364 19.0909091 18.6854545 19.7963636 17.6927273 20.39 16.8736364 20.88 16.3636364 21.7772727 16.3636364 22.7336364L16.3636364 23.6363636C16.3636364 24.1390909 16.77 24.5454545 17.2727273 24.5454545L28.1818182 24.5454545C28.6845455 24.5454545 29.0909091 24.1390909 29.0909091 23.6363636L29.0909091 22.7436364C29.0909091 21.7818182 28.5772727 20.8818182 27.75 20.3936364z"/>
  </g>
</svg>
