<svg xmlns="http://www.w3.org/2000/svg" width="108" height="108" viewBox="0 0 108 108">
  <g fill="none" fill-rule="evenodd">
    <ellipse cx="54" cy="54" stroke="#9B9B9B" stroke-width=".001" stroke-linecap="square" opacity=".596" rx="54" ry="54"/>
    <g fill="#007DBC" transform="translate(24 29)">
      <path d="M33.4625788,1.0986315 C33.1783071,2.84467367 31.6712697,4.17824253 29.8498879,4.17824253 C28.0279387,4.17824253 26.5209013,2.84467367 26.2366296,1.0986315"/>
      <path d="M29.8497744 4.17829942C31.6711562 4.17829942 33.1781936 2.84473056 33.4624653 1.09868839 32.3180021.755055461 31.1054498.567877921 29.849207.567877921 28.5929642.567877921 27.3804119.755055461 26.2365161 1.09868839 26.5207878 2.84473056 28.0278252 4.17829942 29.8497744 4.17829942M29.8497744 22.1856322C28.0278252 22.1856322 26.5207878 23.51977 26.2365161 25.2658122 27.3804119 25.6094451 28.5929642 25.7966227 29.849207 25.7966227 31.1054498 25.7966227 32.3180021 25.6094451 33.4624653 25.2658122 33.1781936 23.51977 31.6711562 22.1856322 29.8497744 22.1856322M23.5001878 6.81568217C24.7887729 5.5236451 24.9130354 3.51134431 23.8820539 2.07536828 21.7202269 3.24565461 19.9396985 5.03152178 18.7725389 7.19914011 20.2046784 8.23231462 22.2116028 8.10771924 23.5001878 6.81568217M36.1987368 19.5482495C34.9101518 20.8402865 34.7858893 22.8525873 35.8163034 24.2885634 37.9786978 23.118846 39.7592262 21.3329788 40.9263858 19.1647915 39.4942463 18.132186 37.4873219 18.2567813 36.1987368 19.5482495M20.8704189 13.1822218C20.8698515 11.3553918 19.5392782 9.84488612 17.7984685 9.55985284 17.4551862 10.707382 17.2690762 11.9226137 17.2690762 13.1822218 17.2690762 14.44183 17.4551862 15.6570617 17.7984685 16.8045908 19.5392782 16.5195576 20.8698515 15.0090519 20.8704189 13.1822218M41.9005697 9.55922702C40.1591925 9.84482922 38.8291866 11.3553349 38.8291866 13.1821649 38.8291866 15.008995 40.1591925 16.5189317 41.9005697 16.8051029 42.2432845 15.6575737 42.429962 14.4417731 42.429962 13.1821649 42.429962 11.9219879 42.2432845 10.7073251 41.9005697 9.55922702M23.5001878 19.5482495C22.2116028 18.2567813 20.2046784 18.132186 18.7725389 19.1653605 19.9396985 21.3335477 21.7202269 23.118846 23.8820539 24.2885634 24.9130354 22.8525873 24.7887729 20.8402865 23.5001878 19.5482495M36.1987368 6.81568217C37.4873219 8.10771924 39.4936789 8.23231462 40.9263858 7.19970904 39.7592262 5.03152178 37.9786978 3.24565461 35.8163034 2.07536828 34.7858893 3.51191324 34.9101518 5.5236451 36.1987368 6.81568217M31.0084229 6.41123076C31.0084229 5.76947919 30.4898114 5.24947837 29.8497744 5.24947837 29.2097375 5.24947837 28.6905585 5.76947919 28.6905585 6.41123076 28.6905585 7.05298233 29.2097375 7.57355209 29.8497744 7.57355209 30.4898114 7.57355209 31.0084229 7.05298233 31.0084229 6.41123076M31.0084229 20.0088541C31.0084229 19.3671026 30.4898114 18.8465328 29.8497744 18.8465328 29.2097375 18.8465328 28.6905585 19.3671026 28.6905585 20.0088541 28.6905585 20.6506057 29.2097375 21.1706065 29.8497744 21.1706065 30.4898114 21.1706065 31.0084229 20.6506057 31.0084229 20.0088541M25.8745661 7.58072059C25.4223414 7.12671549 24.6881146 7.12671549 24.2353225 7.58072059 23.7825304 8.03472569 23.7825304 8.77091942 24.2353225 9.22492452 24.6881146 9.67836069 25.421774 9.67836069 25.8745661 9.22492452 26.3267908 8.77091942 26.3267908 8.03472569 25.8745661 7.58072059M35.4639994 17.1958431C35.0112073 16.741838 34.2769805 16.741838 33.8247558 17.1958431 33.3719637 17.6492793 33.3719637 18.385473 33.8247558 18.8394781 34.2769805 19.2934832 35.0112073 19.2934832 35.463432 18.8394781 35.9162241 18.385473 35.9162241 17.6492793 35.4639994 17.1958431M23.0691275 12.0482901C22.4290905 12.0477211 21.910479 12.5682909 21.910479 13.2100425 21.910479 13.852363 22.4290905 14.3723638 23.0691275 14.3723638 23.7091645 14.3723638 24.227776 13.852363 24.2283434 13.2106114 24.227776 12.5688598 23.7091645 12.0482901 23.0691275 12.0482901M36.6304213 12.0477211C35.9903844 12.0477211 35.4712055 12.5682909 35.4712055 13.2106114 35.4712055 13.852363 35.9903844 14.3723638 36.6304213 14.3723638 37.2704583 14.3723638 37.7890698 13.852363 37.7890698 13.2106114 37.7890698 12.5688598 37.2704583 12.0482901 36.6304213 12.0477211M24.2354927 17.1958431C23.7827006 17.6492793 23.7827006 18.385473 24.2354927 18.8394781 24.6882848 19.2934832 25.4225116 19.2934832 25.8747363 18.8394781 26.3275284 18.385473 26.3275284 17.6498482 25.8747363 17.196412 25.4219442 16.7424069 24.6882848 16.7424069 24.2354927 17.1958431M33.8244153 7.58072059C33.3716232 8.03472569 33.3716232 8.77091942 33.8249827 9.22492452 34.2772074 9.67836069 35.0114342 9.67836069 35.4636589 9.22492452 35.916451 8.77091942 35.916451 8.03529461 35.4636589 7.58128952 35.0114342 7.12728442 34.2772074 7.12728442 33.8244153 7.58072059M4.51978626 42.6163949C2.23978626 42.6163949.0000916030533 41.21938.0000916030533 37.4274168.0000916030533 33.6349943 2.23978626 32.258186 4.51978626 32.258186 5.91993893 32.258186 6.89963359 32.6572675 7.85963359 33.6749483L6.45948092 35.0320092C5.81963359 34.333961 5.31948092 34.0740299 4.51978626 34.0740299 3.73978626 34.0740299 3.07932824 34.3936625 2.6400916 34.9723077 2.19993893 35.5312055 2.0400916 36.2499196 2.0400916 37.4274168 2.0400916 38.6049139 2.19993893 39.3433754 2.6400916 39.9022732 3.07932824 40.4809185 3.73978626 40.8000918 4.51978626 40.8000918 5.31948092 40.8000918 5.81963359 40.54062 6.45948092 39.8421125L7.85963359 41.1794259C6.89963359 42.197566 5.91993893 42.6163949 4.51978626 42.6163949M15.6392061 38.0262227L13.2593588 38.0262227C12.0593588 38.0262227 11.4392061 38.5649139 11.4392061 39.4829392 11.4392061 40.4014237 12.0195115 40.9203674 13.2992061 40.9203674 14.0792061 40.9203674 14.6590534 40.8602067 15.1990534 40.3412629 15.4990534 40.0422962 15.6392061 39.5628473 15.6392061 38.8441332L15.6392061 38.0262227zM15.6790534 42.4964868L15.6790534 41.5784615C14.9393588 42.3173823 14.2390534 42.616349 12.9790534 42.616349 11.7190534 42.616349 10.8790534 42.3173823 10.2593588 41.6983238 9.73951145 41.1596326 9.45966412 40.381217 9.45966412 39.5228932 9.45966412 37.8264524 10.6395115 36.6090011 12.9589008 36.6090011L15.6392061 36.6090011 15.6392061 35.8907463C15.6392061 34.6131343 14.9993588 33.994535 13.4192061 33.994535 12.2993588 33.994535 11.7593588 34.2540069 11.1996641 34.972721L9.85951145 33.7148565C10.8195115 32.5975201 11.8193588 32.2581401 13.4993588 32.2581401 16.2790534 32.2581401 17.6787481 33.4356372 17.6787481 35.73093L17.6787481 42.4964868 15.6790534 42.4964868zM26.9987634 42.4966705L26.9987634 36.3295063C26.9987634 34.7529277 26.0983053 34.0741676 24.9587634 34.0741676 23.8192214 34.0741676 22.8587634 34.7731343 22.8587634 36.3295063L22.8587634 42.4966705 20.8192214 42.4966705 20.8192214 32.378186 22.818916 32.378186 22.818916 33.3958668C23.5187634 32.6371986 24.498916 32.2583238 25.518916 32.2583238 26.5586107 32.2583238 27.4187634 32.5972445 28.0187634 33.176349 28.7987634 33.934558 29.0383053 34.8925373 29.0383053 36.0300804L29.0383053 42.4966705 26.9987634 42.4966705z"/>
      <polygon points="36.098 42.497 34.438 42.497 30.719 32.378 32.879 32.378 35.278 39.503 37.658 32.378 39.818 32.378"/>
      <path d="M47.0176947 38.0262227L44.6378473 38.0262227C43.4383053 38.0262227 42.8176947 38.5649139 42.8176947 39.4829392 42.8176947 40.4014237 43.398 40.9203674 44.6781527 40.9203674 45.4576947 40.9203674 46.037542 40.8602067 46.577542 40.3412629 46.877542 40.0422962 47.0176947 39.5628473 47.0176947 38.8441332L47.0176947 38.0262227zM47.057542 42.4964868L47.057542 41.5784615C46.3178473 42.3173823 45.617542 42.616349 44.357542 42.616349 43.097542 42.616349 42.258 42.3173823 41.6378473 41.6983238 41.118 41.1596326 40.8381527 40.381217 40.8381527 39.5228932 40.8381527 37.8264524 42.018 36.6090011 44.3378473 36.6090011L47.0176947 36.6090011 47.0176947 35.8907463C47.0176947 34.6131343 46.3778473 33.994535 44.7976947 33.994535 43.6778473 33.994535 43.1378473 34.2540069 42.5781527 34.972721L41.238 33.7148565C42.198 32.5975201 43.1978473 32.2581401 44.8778473 32.2581401 47.657542 32.2581401 49.0572366 33.4356372 49.0572366 35.73093L49.0572366 42.4964868 47.057542 42.4964868zM55.4775573 42.6163949C53.8177099 42.6163949 52.4170992 42.3371757 51.2175573 41.1596785L52.5577099 39.8223651C53.3775573 40.6604822 54.4772519 40.8804592 55.4775573 40.8804592 56.7174046 40.8804592 57.6975573 40.4409644 57.6975573 39.4829851 57.6975573 38.8046843 57.3174046 38.3651894 56.3372519 38.2852813L54.7177099 38.1461309C52.8174046 37.9863146 51.7177099 37.1279908 51.7177099 35.3516418 51.7177099 33.3759816 53.4174046 32.258186 55.5375573 32.258186 57.0572519 32.258186 58.3570992 32.5778186 59.2974046 33.395729L58.0172519 34.6930884C57.3769466 34.153938 56.4774046 33.9546269 55.5174046 33.9546269 54.2977099 33.9546269 53.6770992 34.4937773 53.6770992 35.2519862 53.6770992 35.8508381 53.9977099 36.3096211 55.0772519 36.4092767L56.6770992 36.5493456C58.5774046 36.7091619 59.6972519 37.6069805 59.6972519 39.4035362 59.6972519 41.518806 57.8972519 42.6163949 55.4775573 42.6163949"/>
    </g>
  </g>
</svg>
