<svg xmlns="http://www.w3.org/2000/svg" width="64" height="26" viewBox="0 0 64 26">
  <g fill="none" fill-rule="evenodd" transform="translate(-22 -40)">
    <ellipse cx="54" cy="54" stroke="#9B9B9B" stroke-width=".001" rx="54" ry="54" stroke-linecap="square" opacity=".596"/>
    <g fill="#007DBC" transform="translate(22 40)">
      <path d="M15.6488299,17.0056343 L3.49570117,17.0056343 C3.49570117,19.0009928 4.03618465,20.5346364 5.11716783,21.6066109 C6.07221122,22.5406085 7.30010573,23.0076003 8.8008882,23.0076003 C10.5115703,23.0076003 12.7089774,21.8348074 13.8529305,20.8265145 L15.1123221,23.0076003 C14.6505429,23.4745991 13.1720313,24.5465642 12.2169879,24.8861997 C11.0205599,25.3319713 9.68771712,25.5548537 8.2184196,25.5548537 C6.09843317,25.5548537 4.2985707,24.8278324 2.8187782,23.373768 C1.17106598,21.771113 0.347222222,19.6165827 0.347222222,16.9101123 C0.347222222,14.0975059 1.19205563,11.8421478 2.88174778,10.1439704 C4.39302523,8.62622426 6.18239287,7.86736259 8.24990439,7.86736259 C10.6532553,7.86736259 12.5370764,8.55193011 13.9014241,9.92108568 C15.2237919,11.2371732 15.4750817,13.3169335 15.5806478,14.5220622 C15.6862139,15.727191 15.6488299,17.0056343 15.6488299,17.0056343 Z M8.39158594,10.414616 C7.05872319,10.414616 5.94102434,10.8497675 5.03845586,11.7200834 C4.17786731,12.5479449 3.68985795,13.5774496 3.57441315,14.8086282 L12.9096532,14.8086282 C12.9096532,13.5880632 12.5318395,12.569172 11.7762008,11.7519241 C10.9470972,10.8603809 9.81890354,10.414616 8.39158594,10.414616 Z M30.4343733,9.57083833 L28.9545882,11.7041631 C28.6502337,11.3963684 28.1123739,11.1044986 27.3409927,10.8285447 C26.5696115,10.5525909 25.8113604,10.414616 25.0662167,10.414616 C23.4394944,10.414616 22.148631,10.9903957 21.1935876,12.1419723 C20.2385442,13.2935489 19.7610296,14.8722995 19.7610296,16.8782717 C19.7610296,18.8736302 20.249039,20.3940069 21.2250724,21.4394474 C22.2011057,22.4848879 23.5549381,23.0076003 25.2866102,23.0076003 C26.6299679,23.0076003 27.9838003,22.4822345 29.348148,21.4314872 L30.5288277,23.9787407 C28.9230954,25.029488 26.934326,25.5548537 24.56246,25.5548537 C22.2640589,25.5548537 20.3644956,24.7747652 18.8637131,23.2145646 C17.3629307,21.6543641 16.6125507,19.5422875 16.6125507,16.8782717 C16.6125507,14.1611877 17.3917914,11.9801238 18.9502963,10.3350144 C20.5088012,8.68990495 22.6418743,7.86736259 25.3495798,7.86736259 C26.2206633,7.86736259 27.1651976,8.05309796 28.1832108,8.42457428 C29.2012241,8.7960506 29.9516041,9.17813479 30.4343733,9.57083833 Z M42.1485457,25.236447 L42.1485457,14.5220622 C42.1485457,13.2484291 41.8568215,12.2454581 41.2733643,11.5131191 C40.689907,10.7807801 39.8709354,10.6728693 38.8128011,10.6728693 C38.1304528,10.6728693 37.2647712,10.8842659 36.490619,11.5131191 C35.7164667,12.1419723 35.1767611,13.0623578 35.1767611,13.8793126 L35.1767611,25.236447 L32.3583801,25.236447 L32.3583801,1.19674262 L35.1767611,1.19674262 L35.1767611,10.0643687 C35.5525471,9.43816575 36.1582458,8.91545334 36.9938752,8.49621578 C37.8295046,8.07697822 38.6923161,7.86736259 39.5823357,7.86736259 C41.2634836,7.86736259 42.5811872,8.46171578 43.5354858,9.65044 C44.4897845,10.8391642 44.9669267,12.4630221 44.9669267,14.5220622 L44.9669267,25.236447 L42.1485457,25.236447 Z"/>
      <path fill-rule="nonzero" d="M54.9677032,25.542375 C50.2061157,25.542375 46.3460863,21.638715 46.3460863,16.8233064 C46.3460863,12.0078977 50.2061157,8.10423774 54.9677032,8.10423774 C59.7292907,8.10423774 63.58932,12.0078977 63.58932,16.8233064 C63.58932,21.638715 59.7292907,25.542375 54.9677032,25.542375 Z M54.9677032,22.7764176 C58.2187683,22.7764176 60.8542773,20.1111189 60.8542773,16.8233064 C60.8542773,13.5354939 58.2187683,10.8701952 54.9677032,10.8701952 C51.716638,10.8701952 49.081129,13.5354939 49.081129,16.8233064 C49.081129,20.1111189 51.716638,22.7764176 54.9677032,22.7764176 Z"/>
      <path d="M52.7407713,17.5798086 C52.2917936,17.2654645 52.2978562,16.7515674 52.7407713,16.441468 L56.0379562,14.1330001 C56.4869339,13.818656 56.8509022,14.0161393 56.8509022,14.5662209 L56.8509022,19.4550557 C56.8509022,20.008661 56.4808713,20.198376 56.0379562,19.8882765 L52.7407713,17.5798086 Z"/>
      <g transform="translate(47.59)">
        <path d="M0 7.76586018C0 7.63580373.121221529 7.52437516.279846616 7.52437516.428950797 7.52437516.568874105 7.62665914.680744745 7.71945983.811487179 7.83105775.942059598 7.89591663 1.18450266 7.89591663 1.69744144 7.89591663 2.4529933 7.49643335 2.4529933 6.43752323 2.4529933 5.80586887 2.04257427 5.27632914 1.24995888 5.14627269 1.17515177 5.13712809 1.14726912 5.0905584 1.14726912 5.03484412 1.14726912 4.97912983 1.18450266 4.93272948 1.26849064 4.91410161 1.75337676 4.81198697 2.43429152 4.17084933 2.43429152 3.52988102 2.43429152 3.23251238 2.15444491 2.74954234 1.65068699 2.74954234 1.18450266 2.74954234.914176946 3.09331133.736850081 3.33479635.680744745 3.39999392.652862093 3.41845245.57839501 3.41845245.494407022 3.41845245.457003465 3.3811967.457003465 3.32548241.457003465 3.27908207.485226149 3.2047399.503757912 3.1676535.718318318 2.7310838 1.21238531 2.1829162 1.95858628 2.1829162 2.62062924 2.1829162 3.03104828 2.68451411 3.03104828 3.14902562 3.03104828 3.92936431 2.51810949 4.40318975 2.14509402 4.76541728 2.89129499 5.14627269 3.20837514 5.66649848 3.20837514 6.13100999 3.20837514 7.40363265 2.12656225 8.23020234 1.02604759 8.23020234.5877459 8.23020234 0 8.13740165 0 7.76586018M6.79168695 4.25445462C6.79168695 3.58571385 6.3906188 3.01891837 5.78451116 3.01891837 4.98220485 3.01891837 4.73058092 3.59485845 4.73058092 4.21736822 4.73058092 5.60141945 5.21546704 5.96381633 5.73775671 5.96381633 6.35338526 5.96381633 6.79168695 5.45290447 6.79168695 4.25445462M3.97519908 3.97571385C3.97519908 1.9227525 5.74693758.445900564 6.67046542.0650451585 6.72623072.0371033435 6.83810136.0000169344333 6.90355759.0000169344333 6.95932289.0000169344333 7.02477912.0557312201 7.02477912.130073383 7.02477912.194932262 6.98754558.222874077 6.95014202.241501954 5.98972067.696699522 5.18741437 1.68143682 4.90790778 3.05617412L4.93579044 3.05617412C5.11277727 2.84246157 5.467431 2.64754624 5.98019977 2.64754624 6.94079113 2.64754624 7.56577057 3.49274381 7.56577057 4.3567386 7.56577057 5.18347764 6.99689647 6.27964351 5.68199141 6.27964351 4.71204916 6.27964351 3.97519908 5.4342766 3.97519908 3.97571385M11.9512697 4.18946027C11.9512697 3.27906513 11.1958878 2.65672471 10.5057922 2.65672471 9.47974461 2.65672471 9.07884648 3.57643378 9.07884648 4.17100174 9.07884648 5.22991185 9.88081275 5.77807946 10.5522066 5.77807946 11.4381609 5.77807946 11.9512697 5.06259965 11.9512697 4.18946027M8.45403705 4.25448849C8.45403705 3.20489231 9.21876979 2.18289926 10.5522066 2.18289926 11.6527213 2.18289926 12.5762491 2.98186583 12.5762491 4.24517455 12.5762491 5.30425402 11.7367093 6.27967738 10.5057922 6.27967738 9.47974461 6.27967738 8.45403705 5.51796657 8.45403705 4.25448849"/>
      </g>
    </g>
  </g>
</svg>
