<svg xmlns="http://www.w3.org/2000/svg" width="108" height="108" viewBox="0 0 108 108">
  <g fill="none" fill-rule="evenodd">
    <circle cx="54" cy="54" r="54"/>
    <path fill="#FFFFFF" d="M25.628,56 L25.628,45.328 L31.244,45.328 C33.276,45.328 34.316,46.624 34.316,48.048 C34.316,49.392 33.484,50.288 32.476,50.496 C33.612,50.672 34.524,51.776 34.524,53.12 C34.524,54.72 33.452,56 31.42,56 L25.628,56 Z M27.9,49.616 L30.748,49.616 C31.516,49.616 31.996,49.12 31.996,48.432 C31.996,47.776 31.516,47.264 30.748,47.264 L27.9,47.264 L27.9,49.616 Z M27.9,54.064 L30.828,54.064 C31.692,54.064 32.204,53.568 32.204,52.8 C32.204,52.128 31.724,51.552 30.828,51.552 L27.9,51.552 L27.9,54.064 Z M37.196,47.28 C37.868,47.28 38.412,46.736 38.412,46.064 C38.412,45.392 37.868,44.848 37.196,44.848 C36.54,44.848 35.98,45.392 35.98,46.064 C35.98,46.736 36.54,47.28 37.196,47.28 Z M36.188,56 L38.22,56 L38.22,48.272 L36.188,48.272 L36.188,56 Z M40.236,56 L42.268,56 L42.268,45.328 L40.236,45.328 L40.236,56 Z M44.284,56 L46.316,56 L46.316,45.328 L44.284,45.328 L44.284,56 Z M49.34,47.28 C50.012,47.28 50.556,46.736 50.556,46.064 C50.556,45.392 50.012,44.848 49.34,44.848 C48.684,44.848 48.124,45.392 48.124,46.064 C48.124,46.736 48.684,47.28 49.34,47.28 Z M48.332,56 L50.364,56 L50.364,48.272 L48.332,48.272 L48.332,56 Z M57.596,56 L59.628,56 L59.628,50.544 C59.628,49.04 58.812,48.08 57.116,48.08 C55.852,48.08 54.908,48.688 54.412,49.28 L54.412,48.272 L52.38,48.272 L52.38,56 L54.412,56 L54.412,50.8 C54.748,50.336 55.372,49.888 56.172,49.888 C57.036,49.888 57.596,50.256 57.596,51.328 L57.596,56 Z M61.484,57.984 L62.396,56.512 C63.02,57.2 63.836,57.472 64.812,57.472 C65.788,57.472 66.94,57.04 66.94,55.52 L66.94,54.736 C66.332,55.504 65.5,55.952 64.556,55.952 C62.62,55.952 61.148,54.592 61.148,52.016 C61.148,49.488 62.604,48.08 64.556,48.08 C65.484,48.08 66.316,48.48 66.94,49.264 L66.94,48.272 L68.988,48.272 L68.988,55.472 C68.988,58.416 66.716,59.136 64.812,59.136 C63.484,59.136 62.444,58.832 61.484,57.984 Z M66.94,53.264 L66.94,50.768 C66.604,50.256 65.868,49.888 65.196,49.888 C64.044,49.888 63.244,50.688 63.244,52.016 C63.244,53.344 64.044,54.144 65.196,54.144 C65.868,54.144 66.604,53.76 66.94,53.264 Z M82.236,53.84 C82.876,54.544 83.548,55.248 84.3,56 L81.708,56 C81.484,55.792 81.212,55.504 80.908,55.2 C80.108,55.808 79.148,56.192 77.996,56.192 C76.044,56.192 74.476,55.168 74.476,53.104 C74.476,51.472 75.564,50.64 76.78,50.016 C76.348,49.232 76.06,48.448 76.06,47.728 C76.06,46.288 77.34,45.168 79.116,45.168 C80.62,45.168 81.916,46 81.916,47.424 C81.916,49.056 80.62,49.744 79.308,50.352 C79.612,50.784 79.948,51.184 80.22,51.504 L81.116,52.592 C81.58,51.904 81.9,51.152 82.092,50.528 L83.724,51.28 C83.34,52.128 82.86,53.04 82.236,53.84 Z M78.092,47.776 C78.092,48.208 78.284,48.704 78.556,49.216 C79.468,48.784 80.156,48.32 80.156,47.536 C80.156,46.976 79.74,46.64 79.212,46.64 C78.588,46.64 78.092,47.12 78.092,47.776 Z M78.284,54.592 C78.844,54.592 79.356,54.384 79.82,54.032 C79.34,53.504 78.892,53.008 78.636,52.688 C78.284,52.256 77.916,51.776 77.564,51.28 C77.004,51.68 76.636,52.176 76.636,52.912 C76.636,53.952 77.404,54.592 78.284,54.592 Z M30.78,72 L30.78,61.328 L35.772,61.328 C38.092,61.328 39.356,62.896 39.356,64.768 C39.356,66.624 38.076,68.176 35.772,68.176 L33.052,68.176 L33.052,72 L30.78,72 Z M37.036,64.752 C37.036,63.872 36.364,63.28 35.468,63.28 L33.052,63.28 L33.052,66.224 L35.468,66.224 C36.364,66.224 37.036,65.648 37.036,64.752 Z M45.356,72 L45.356,71.2 C44.828,71.824 43.916,72.192 42.908,72.192 C41.676,72.192 40.22,71.36 40.22,69.632 C40.22,67.824 41.676,67.168 42.908,67.168 C43.932,67.168 44.844,67.488 45.356,68.112 L45.356,67.04 C45.356,66.256 44.684,65.744 43.66,65.744 C42.828,65.744 42.06,66.048 41.404,66.656 L40.636,65.296 C41.58,64.464 42.796,64.08 44.012,64.08 C45.772,64.08 47.388,64.784 47.388,67.008 L47.388,72 L45.356,72 Z M45.356,70.144 L45.356,69.184 C45.02,68.736 44.38,68.512 43.724,68.512 C42.924,68.512 42.268,68.944 42.268,69.68 C42.268,70.4 42.924,70.816 43.724,70.816 C44.38,70.816 45.02,70.592 45.356,70.144 Z M49.436,73.2 L49.132,75.024 C49.388,75.088 49.9,75.136 50.14,75.136 C51.468,75.104 52.492,74.72 53.068,73.264 L56.7,64.272 L54.508,64.272 L52.492,69.648 L50.476,64.272 L48.3,64.272 L51.436,72.112 L51.148,72.768 C50.956,73.184 50.604,73.328 50.076,73.328 C49.884,73.328 49.612,73.28 49.436,73.2 Z M58.62,63.28 C59.292,63.28 59.836,62.736 59.836,62.064 C59.836,61.392 59.292,60.848 58.62,60.848 C57.964,60.848 57.404,61.392 57.404,62.064 C57.404,62.736 57.964,63.28 58.62,63.28 Z M57.612,72 L59.644,72 L59.644,64.272 L57.612,64.272 L57.612,72 Z M66.876,72 L68.908,72 L68.908,66.544 C68.908,65.04 68.092,64.08 66.396,64.08 C65.132,64.08 64.188,64.688 63.692,65.28 L63.692,64.272 L61.66,64.272 L61.66,72 L63.692,72 L63.692,66.8 C64.028,66.336 64.652,65.888 65.452,65.888 C66.316,65.888 66.876,66.256 66.876,67.328 L66.876,72 Z M70.764,73.984 L71.676,72.512 C72.3,73.2 73.116,73.472 74.092,73.472 C75.068,73.472 76.22,73.04 76.22,71.52 L76.22,70.736 C75.612,71.504 74.78,71.952 73.836,71.952 C71.9,71.952 70.428,70.592 70.428,68.016 C70.428,65.488 71.884,64.08 73.836,64.08 C74.764,64.08 75.596,64.48 76.22,65.264 L76.22,64.272 L78.268,64.272 L78.268,71.472 C78.268,74.416 75.996,75.136 74.092,75.136 C72.764,75.136 71.724,74.832 70.764,73.984 Z M76.22,69.264 L76.22,66.768 C75.884,66.256 75.148,65.888 74.476,65.888 C73.324,65.888 72.524,66.688 72.524,68.016 C72.524,69.344 73.324,70.144 74.476,70.144 C75.148,70.144 75.884,69.76 76.22,69.264 Z M24.356,86.496 C25.364,87.504 26.836,88.192 28.884,88.192 C31.764,88.192 33.156,86.72 33.156,84.768 C33.156,82.4 30.916,81.872 29.156,81.472 C27.924,81.184 27.028,80.96 27.028,80.24 C27.028,79.6 27.572,79.152 28.596,79.152 C29.636,79.152 30.788,79.52 31.652,80.32 L32.916,78.656 C31.86,77.68 30.452,77.168 28.756,77.168 C26.244,77.168 24.708,78.608 24.708,80.384 C24.708,82.768 26.948,83.248 28.692,83.648 C29.924,83.936 30.852,84.208 30.852,85.008 C30.852,85.616 30.244,86.208 28.996,86.208 C27.524,86.208 26.356,85.552 25.604,84.768 L24.356,86.496 Z M34.148,84.128 C34.148,81.888 35.796,80.08 38.148,80.08 C40.452,80.08 42.02,81.808 42.02,84.336 L42.02,84.784 L36.276,84.784 C36.404,85.76 37.188,86.576 38.5,86.576 C39.22,86.576 40.068,86.288 40.564,85.808 L41.46,87.12 C40.676,87.84 39.476,88.192 38.276,88.192 C35.924,88.192 34.148,86.608 34.148,84.128 Z M38.148,81.696 C36.884,81.696 36.34,82.64 36.244,83.408 L40.052,83.408 C40.004,82.672 39.492,81.696 38.148,81.696 Z M43.492,88 L45.524,88 L45.524,82.896 C45.86,82.4 46.756,82.032 47.428,82.032 C47.652,82.032 47.844,82.048 47.988,82.08 L47.988,80.096 C47.028,80.096 46.068,80.64 45.524,81.328 L45.524,80.272 L43.492,80.272 L43.492,88 Z M51.252,88 L53.444,88 L56.548,80.272 L54.356,80.272 L52.34,85.648 L50.324,80.272 L48.148,80.272 L51.252,88 Z M58.468,79.28 C59.14,79.28 59.684,78.736 59.684,78.064 C59.684,77.392 59.14,76.848 58.468,76.848 C57.812,76.848 57.252,77.392 57.252,78.064 C57.252,78.736 57.812,79.28 58.468,79.28 Z M57.46,88 L59.492,88 L59.492,80.272 L57.46,80.272 L57.46,88 Z M61.012,84.128 C61.012,86.512 62.724,88.192 65.108,88.192 C66.692,88.192 67.652,87.504 68.164,86.784 L66.836,85.552 C66.468,86.064 65.908,86.384 65.204,86.384 C63.972,86.384 63.108,85.472 63.108,84.128 C63.108,82.784 63.972,81.888 65.204,81.888 C65.908,81.888 66.468,82.192 66.836,82.72 L68.164,81.488 C67.652,80.768 66.692,80.08 65.108,80.08 C62.724,80.08 61.012,81.76 61.012,84.128 Z M68.996,84.128 C68.996,81.888 70.644,80.08 72.996,80.08 C75.3,80.08 76.868,81.808 76.868,84.336 L76.868,84.784 L71.124,84.784 C71.252,85.76 72.036,86.576 73.348,86.576 C74.068,86.576 74.916,86.288 75.412,85.808 L76.308,87.12 C75.524,87.84 74.324,88.192 73.124,88.192 C70.772,88.192 68.996,86.608 68.996,84.128 Z M72.996,81.696 C71.732,81.696 71.188,82.64 71.092,83.408 L74.9,83.408 C74.852,82.672 74.34,81.696 72.996,81.696 Z M77.668,86.992 C78.484,87.744 79.78,88.192 81.124,88.192 C83.268,88.192 84.468,87.136 84.468,85.712 C84.468,83.792 82.692,83.44 81.364,83.184 C80.5,83.008 79.892,82.832 79.892,82.352 C79.892,81.904 80.372,81.632 81.108,81.632 C82.052,81.632 82.932,82.032 83.396,82.528 L84.196,81.136 C83.444,80.528 82.404,80.08 81.092,80.08 C79.06,80.08 77.924,81.216 77.924,82.512 C77.924,84.352 79.636,84.672 80.964,84.928 C81.844,85.104 82.516,85.296 82.516,85.84 C82.516,86.32 82.1,86.624 81.22,86.624 C80.26,86.624 79.108,86.096 78.548,85.568 L77.668,86.992 Z"/>
    <g stroke="#FFFFFF" transform="translate(43 13)" stroke-linecap="round" stroke-linejoin="round">
      <path d="M10.2222222,11.2444444 L14.3111111,11.2444444"/>
      <circle cx="12.267" cy="2.044" r="2.044"/>
      <path d="M20.4444444 14.3622222C21.6711111 14.3622222 22.4888889 13.6466667 22.4888889 12.3177778 22.4888889 10.9888889 21.4666667 10.7844444 21.4666667 10.7844444M14.3111111 8.17777778L8.17777778 8.17777778C6.9 5.16222222 4.08888889 6.13333333 4.08888889 6.13333333L5.06 9.04666667C3.83333333 9.76222222 2.86222222 10.8866667 2.40222222 12.2666667L0 12.2666667 0 17.3777778 2.86222222 17.3777778C3.57777778 18.6044444 4.75333333 19.5755556 6.13333333 20.0866667L6.13333333 22.4888889 9.2 22.4888889 9.2 20.4444444 13.2888889 20.4444444 13.2888889 22.4888889 16.3555556 22.4888889 16.3555556 20.0866667C18.7577778 19.2688889 20.4444444 16.9688889 20.4444444 14.3111111 20.4444444 10.9377778 17.6844444 8.17777778 14.3111111 8.17777778z"/>
      <circle cx="6.133" cy="12.267" r=".511"/>
    </g>
  </g>
</svg>
