<svg xmlns="http://www.w3.org/2000/svg" width="108" height="108" viewBox="0 0 108 108">
  <g fill="none" fill-rule="evenodd">
    <circle cx="54" cy="54" r="54"/>
    <path fill="#FFFFFF" d="M17.556,59 L17.556,48.328 L23.172,48.328 C25.204,48.328 26.244,49.624 26.244,51.048 C26.244,52.392 25.412,53.288 24.404,53.496 C25.54,53.672 26.452,54.776 26.452,56.12 C26.452,57.72 25.38,59 23.348,59 L17.556,59 Z M19.828,52.616 L22.676,52.616 C23.444,52.616 23.924,52.12 23.924,51.432 C23.924,50.776 23.444,50.264 22.676,50.264 L19.828,50.264 L19.828,52.616 Z M19.828,57.064 L22.756,57.064 C23.62,57.064 24.132,56.568 24.132,55.8 C24.132,55.128 23.652,54.552 22.756,54.552 L19.828,54.552 L19.828,57.064 Z M28.116,59 L30.148,59 L30.148,48.328 L28.116,48.328 L28.116,59 Z M36.804,59 L36.804,58.2 C36.276,58.824 35.364,59.192 34.356,59.192 C33.124,59.192 31.668,58.36 31.668,56.632 C31.668,54.824 33.124,54.168 34.356,54.168 C35.38,54.168 36.292,54.488 36.804,55.112 L36.804,54.04 C36.804,53.256 36.132,52.744 35.108,52.744 C34.276,52.744 33.508,53.048 32.852,53.656 L32.084,52.296 C33.028,51.464 34.244,51.08 35.46,51.08 C37.22,51.08 38.836,51.784 38.836,54.008 L38.836,59 L36.804,59 Z M36.804,57.144 L36.804,56.184 C36.468,55.736 35.828,55.512 35.172,55.512 C34.372,55.512 33.716,55.944 33.716,56.68 C33.716,57.4 34.372,57.816 35.172,57.816 C35.828,57.816 36.468,57.592 36.804,57.144 Z M40.356,55.128 C40.356,57.512 42.068,59.192 44.452,59.192 C46.036,59.192 46.996,58.504 47.508,57.784 L46.18,56.552 C45.812,57.064 45.252,57.384 44.548,57.384 C43.316,57.384 42.452,56.472 42.452,55.128 C42.452,53.784 43.316,52.888 44.548,52.888 C45.252,52.888 45.812,53.192 46.18,53.72 L47.508,52.488 C46.996,51.768 46.036,51.08 44.452,51.08 C42.068,51.08 40.356,52.76 40.356,55.128 Z M53.844,59 L56.388,59 L53.236,54.776 L56.292,51.272 L53.796,51.272 L50.868,54.712 L50.868,48.328 L48.836,48.328 L48.836,59 L50.868,59 L50.868,57.016 L51.796,56.024 L53.844,59 Z M57.396,59 L57.396,48.328 L59.428,48.328 L59.428,52.264 C60.036,51.48 60.9,51.08 61.812,51.08 C63.78,51.08 65.236,52.616 65.236,55.144 C65.236,57.72 63.764,59.192 61.812,59.192 C60.884,59.192 60.036,58.776 59.428,58.024 L59.428,59 L57.396,59 Z M59.428,56.52 C59.764,57.016 60.516,57.384 61.172,57.384 C62.356,57.384 63.14,56.488 63.14,55.144 C63.14,53.8 62.356,52.888 61.172,52.888 C60.516,52.888 59.764,53.272 59.428,53.784 L59.428,56.52 Z M70.356,59.192 C67.812,59.192 66.276,57.336 66.276,55.128 C66.276,52.936 67.812,51.08 70.356,51.08 C72.916,51.08 74.452,52.936 74.452,55.128 C74.452,57.336 72.916,59.192 70.356,59.192 Z M70.356,57.384 C71.62,57.384 72.34,56.344 72.34,55.128 C72.34,53.928 71.62,52.888 70.356,52.888 C69.092,52.888 68.388,53.928 68.388,55.128 C68.388,56.344 69.092,57.384 70.356,57.384 Z M80.596,59 L80.596,58.2 C80.068,58.824 79.156,59.192 78.148,59.192 C76.916,59.192 75.46,58.36 75.46,56.632 C75.46,54.824 76.916,54.168 78.148,54.168 C79.172,54.168 80.084,54.488 80.596,55.112 L80.596,54.04 C80.596,53.256 79.924,52.744 78.9,52.744 C78.068,52.744 77.3,53.048 76.644,53.656 L75.876,52.296 C76.82,51.464 78.036,51.08 79.252,51.08 C81.012,51.08 82.628,51.784 82.628,54.008 L82.628,59 L80.596,59 Z M80.596,57.144 L80.596,56.184 C80.26,55.736 79.62,55.512 78.964,55.512 C78.164,55.512 77.508,55.944 77.508,56.68 C77.508,57.4 78.164,57.816 78.964,57.816 C79.62,57.816 80.26,57.592 80.596,57.144 Z M84.644,59 L86.676,59 L86.676,53.896 C87.012,53.4 87.908,53.032 88.58,53.032 C88.804,53.032 88.996,53.048 89.14,53.08 L89.14,51.096 C88.18,51.096 87.22,51.64 86.676,52.328 L86.676,51.272 L84.644,51.272 L84.644,59 Z M95.716,59 L95.716,58.024 C95.108,58.776 94.26,59.192 93.332,59.192 C91.38,59.192 89.908,57.72 89.908,55.144 C89.908,52.616 91.364,51.08 93.332,51.08 C94.244,51.08 95.108,51.48 95.716,52.264 L95.716,48.328 L97.764,48.328 L97.764,59 L95.716,59 Z M95.716,56.504 L95.716,53.768 C95.364,53.256 94.644,52.888 93.956,52.888 C92.804,52.888 92.004,53.8 92.004,55.144 C92.004,56.472 92.804,57.384 93.956,57.384 C94.644,57.384 95.364,57.016 95.716,56.504 Z"/>
    <g stroke="#FFFFFF" transform="translate(32 28)" stroke-linecap="round" stroke-linejoin="round">
      <path d="M23.4 3.4L30 10M14 10L20.6 3.4"/>
      <polyline points="32 38 32 35 22 35 22 38"/>
      <ellipse cx="22" cy="2" rx="2" ry="2"/>
      <path d="M0 10L6 16M44 10L38 16M44 44L38 38M0 44L6 38M0 19.7615884L0 10 44 10 44 19.7615884M44 33.8068628L44 44 0 44 0 33.8068628"/>
      <path d="M6,19.8248431 L6,16 L38,16 L38,19.8248431 M38,33.8184828 L38,38 L6,38 L6,33.8184828"/>
    </g>
  </g>
</svg>
