<svg xmlns="http://www.w3.org/2000/svg" width="108" height="108" viewBox="0 0 108 108">
  <g fill="none" fill-rule="evenodd">
    <circle cx="54" cy="54" r="54"/>
    <path fill="#FFFFFF" d="M21.712,76 L21.712,65.328 L25.92,65.328 C29.264,65.328 31.584,67.456 31.584,70.672 C31.584,73.888 29.264,76 25.92,76 L21.712,76 Z M23.984,74 L25.92,74 C28.032,74 29.264,72.48 29.264,70.672 C29.264,68.784 28.112,67.328 25.92,67.328 L23.984,67.328 L23.984,74 Z M34.16,67.28 C34.832,67.28 35.376,66.736 35.376,66.064 C35.376,65.392 34.832,64.848 34.16,64.848 C33.504,64.848 32.944,65.392 32.944,66.064 C32.944,66.736 33.504,67.28 34.16,67.28 Z M33.152,76 L35.184,76 L35.184,68.272 L33.152,68.272 L33.152,76 Z M37.2,76 L39.232,76 L39.232,70.896 C39.568,70.4 40.464,70.032 41.136,70.032 C41.36,70.032 41.552,70.048 41.696,70.08 L41.696,68.096 C40.736,68.096 39.776,68.64 39.232,69.328 L39.232,68.272 L37.2,68.272 L37.2,76 Z M42.464,72.128 C42.464,69.888 44.112,68.08 46.464,68.08 C48.768,68.08 50.336,69.808 50.336,72.336 L50.336,72.784 L44.592,72.784 C44.72,73.76 45.504,74.576 46.816,74.576 C47.536,74.576 48.384,74.288 48.88,73.808 L49.776,75.12 C48.992,75.84 47.792,76.192 46.592,76.192 C44.24,76.192 42.464,74.608 42.464,72.128 Z M46.464,69.696 C45.2,69.696 44.656,70.64 44.56,71.408 L48.368,71.408 C48.32,70.672 47.808,69.696 46.464,69.696 Z M51.312,72.128 C51.312,74.512 53.024,76.192 55.408,76.192 C56.992,76.192 57.952,75.504 58.464,74.784 L57.136,73.552 C56.768,74.064 56.208,74.384 55.504,74.384 C54.272,74.384 53.408,73.472 53.408,72.128 C53.408,70.784 54.272,69.888 55.504,69.888 C56.208,69.888 56.768,70.192 57.136,70.72 L58.464,69.488 C57.952,68.768 56.992,68.08 55.408,68.08 C53.024,68.08 51.312,69.76 51.312,72.128 Z M62.384,76.192 C63.232,76.192 63.776,75.968 64.08,75.696 L63.648,74.16 C63.536,74.272 63.248,74.384 62.944,74.384 C62.496,74.384 62.24,74.016 62.24,73.536 L62.24,70.048 L63.808,70.048 L63.808,68.272 L62.24,68.272 L62.24,66.16 L60.192,66.16 L60.192,68.272 L58.912,68.272 L58.912,70.048 L60.192,70.048 L60.192,74.08 C60.192,75.456 60.96,76.192 62.384,76.192 Z M68.784,76.192 C66.24,76.192 64.704,74.336 64.704,72.128 C64.704,69.936 66.24,68.08 68.784,68.08 C71.344,68.08 72.88,69.936 72.88,72.128 C72.88,74.336 71.344,76.192 68.784,76.192 Z M68.784,74.384 C70.048,74.384 70.768,73.344 70.768,72.128 C70.768,70.928 70.048,69.888 68.784,69.888 C67.52,69.888 66.816,70.928 66.816,72.128 C66.816,73.344 67.52,74.384 68.784,74.384 Z M74.384,76 L76.416,76 L76.416,70.896 C76.752,70.4 77.648,70.032 78.32,70.032 C78.544,70.032 78.736,70.048 78.88,70.08 L78.88,68.096 C77.92,68.096 76.96,68.64 76.416,69.328 L76.416,68.272 L74.384,68.272 L74.384,76 Z M80.176,77.2 L79.872,79.024 C80.128,79.088 80.64,79.136 80.88,79.136 C82.208,79.104 83.232,78.72 83.808,77.264 L87.44,68.272 L85.248,68.272 L83.232,73.648 L81.216,68.272 L79.04,68.272 L82.176,76.112 L81.888,76.768 C81.696,77.184 81.344,77.328 80.816,77.328 C80.624,77.328 80.352,77.28 80.176,77.2 Z"/>
    <g stroke="#FFFFFF" transform="translate(42.324 27.322)" stroke-linecap="round" stroke-linejoin="round">
      <path d="M18.1621622,0 L22.0540541,0 C22.7675676,0 23.3513514,0.58 23.3513514,1.28888889 L23.3513514,27.0666667 C23.3513514,27.7755556 22.7675676,28.3555556 22.0540541,28.3555556 L18.1621622,28.3555556"/>
      <rect width="18.162" height="28.356"/>
      <path d="M0 12.8888889L23.3513514 12.8888889M23.3513514 23.2L0 23.2"/>
      <polygon points="9.081 0 9.081 7.733 6.486 6.444 3.892 7.733 3.892 0"/>
      <path d="M3.89189189,18.0444444 L10.3783784,18.0444444"/>
    </g>
  </g>
</svg>
