<svg xmlns="http://www.w3.org/2000/svg" width="108" height="108" viewBox="0 0 108 108">
  <g fill="none" fill-rule="evenodd">
    <circle cx="54" cy="54" r="54"/>
    <path fill="#FFFFFF" d="M24.544,42.672 C24.544,46.032 27.104,48.208 30.224,48.208 C32.16,48.208 33.68,47.408 34.768,46.192 L34.768,42.112 L29.68,42.112 L29.68,44.064 L32.528,44.064 L32.528,45.36 C32.064,45.776 31.2,46.176 30.224,46.176 C28.288,46.176 26.88,44.688 26.88,42.672 C26.88,40.656 28.288,39.168 30.224,39.168 C31.344,39.168 32.256,39.76 32.752,40.512 L34.64,39.488 C33.824,38.224 32.432,37.152 30.224,37.152 C27.104,37.152 24.544,39.296 24.544,42.672 Z M40.112,48.192 C37.568,48.192 36.032,46.336 36.032,44.128 C36.032,41.936 37.568,40.08 40.112,40.08 C42.672,40.08 44.208,41.936 44.208,44.128 C44.208,46.336 42.672,48.192 40.112,48.192 Z M40.112,46.384 C41.376,46.384 42.096,45.344 42.096,44.128 C42.096,42.928 41.376,41.888 40.112,41.888 C38.848,41.888 38.144,42.928 38.144,44.128 C38.144,45.344 38.848,46.384 40.112,46.384 Z M49.296,48.192 C46.752,48.192 45.216,46.336 45.216,44.128 C45.216,41.936 46.752,40.08 49.296,40.08 C51.856,40.08 53.392,41.936 53.392,44.128 C53.392,46.336 51.856,48.192 49.296,48.192 Z M49.296,46.384 C50.56,46.384 51.28,45.344 51.28,44.128 C51.28,42.928 50.56,41.888 49.296,41.888 C48.032,41.888 47.328,42.928 47.328,44.128 C47.328,45.344 48.032,46.384 49.296,46.384 Z M54.736,49.984 L55.648,48.512 C56.272,49.2 57.088,49.472 58.064,49.472 C59.04,49.472 60.192,49.04 60.192,47.52 L60.192,46.736 C59.584,47.504 58.752,47.952 57.808,47.952 C55.872,47.952 54.4,46.592 54.4,44.016 C54.4,41.488 55.856,40.08 57.808,40.08 C58.736,40.08 59.568,40.48 60.192,41.264 L60.192,40.272 L62.24,40.272 L62.24,47.472 C62.24,50.416 59.968,51.136 58.064,51.136 C56.736,51.136 55.696,50.832 54.736,49.984 Z M60.192,45.264 L60.192,42.768 C59.856,42.256 59.12,41.888 58.448,41.888 C57.296,41.888 56.496,42.688 56.496,44.016 C56.496,45.344 57.296,46.144 58.448,46.144 C59.12,46.144 59.856,45.76 60.192,45.264 Z M64.256,48 L66.288,48 L66.288,37.328 L64.256,37.328 L64.256,48 Z M67.808,44.128 C67.808,41.888 69.456,40.08 71.808,40.08 C74.112,40.08 75.68,41.808 75.68,44.336 L75.68,44.784 L69.936,44.784 C70.064,45.76 70.848,46.576 72.16,46.576 C72.88,46.576 73.728,46.288 74.224,45.808 L75.12,47.12 C74.336,47.84 73.136,48.192 71.936,48.192 C69.584,48.192 67.808,46.608 67.808,44.128 Z M71.808,41.696 C70.544,41.696 70,42.64 69.904,43.408 L73.712,43.408 C73.664,42.672 73.152,41.696 71.808,41.696 Z M32.528,65 L31.856,63.16 L27.088,63.16 L26.416,65 L23.92,65 L28.048,54.328 L30.896,54.328 L35.008,65 L32.528,65 Z M29.472,56.296 L27.696,61.192 L31.232,61.192 L29.472,56.296 Z M37.984,67.944 L35.952,67.944 L35.952,57.272 L37.984,57.272 L37.984,58.248 C38.576,57.496 39.424,57.08 40.368,57.08 C42.352,57.08 43.792,58.552 43.792,61.128 C43.792,63.704 42.352,65.192 40.368,65.192 C39.456,65.192 38.608,64.808 37.984,64.008 L37.984,67.944 Z M41.68,61.128 C41.68,59.8 40.896,58.888 39.728,58.888 C39.072,58.888 38.32,59.272 37.984,59.768 L37.984,62.504 C38.32,62.984 39.072,63.384 39.728,63.384 C40.896,63.384 41.68,62.472 41.68,61.128 Z M47.344,67.944 L45.312,67.944 L45.312,57.272 L47.344,57.272 L47.344,58.248 C47.936,57.496 48.784,57.08 49.728,57.08 C51.712,57.08 53.152,58.552 53.152,61.128 C53.152,63.704 51.712,65.192 49.728,65.192 C48.816,65.192 47.968,64.808 47.344,64.008 L47.344,67.944 Z M51.04,61.128 C51.04,59.8 50.256,58.888 49.088,58.888 C48.432,58.888 47.68,59.272 47.344,59.768 L47.344,62.504 C47.68,62.984 48.432,63.384 49.088,63.384 C50.256,63.384 51.04,62.472 51.04,61.128 Z M54,63.992 C54.816,64.744 56.112,65.192 57.456,65.192 C59.6,65.192 60.8,64.136 60.8,62.712 C60.8,60.792 59.024,60.44 57.696,60.184 C56.832,60.008 56.224,59.832 56.224,59.352 C56.224,58.904 56.704,58.632 57.44,58.632 C58.384,58.632 59.264,59.032 59.728,59.528 L60.528,58.136 C59.776,57.528 58.736,57.08 57.424,57.08 C55.392,57.08 54.256,58.216 54.256,59.512 C54.256,61.352 55.968,61.672 57.296,61.928 C58.176,62.104 58.848,62.296 58.848,62.84 C58.848,63.32 58.432,63.624 57.552,63.624 C56.592,63.624 55.44,63.096 54.88,62.568 L54,63.992 Z"/>
    <g stroke="#FFFFFF" transform="translate(67.256 54.256)" stroke-linecap="round" stroke-linejoin="round">
      <rect width="13.333" height="16.356" y="6.133"/>
      <polyline points="3.077 3.067 16.41 3.067 16.41 19.422"/>
      <polyline points="6.154 0 19.487 0 19.487 16.356"/>
    </g>
    <path fill="#FFFFFF" d="M74.0612328,68.4140126 L74.0612328,69.5716001 L75.7087068,69.5716001 C75.6377527,69.945689 75.42207,70.2626525 75.0978752,70.4748469 C74.8237405,70.6544102 74.473097,70.7605074 74.0612328,70.7605074 C73.2639015,70.7605074 72.5890289,70.234073 72.3483248,69.5267303 C72.2870868,69.347167 72.2522976,69.1553649 72.2522976,68.9581159 C72.2522976,68.7608837 72.2870868,68.5690816 72.3483248,68.3895182 C72.5890289,67.6821587 73.2639015,67.1557411 74.0612328,67.1557411 C74.5106549,67.1557411 74.9141958,67.3067417 75.2314602,67.6032793 L76.1094619,66.744936 C75.5793178,66.2620432 74.8863541,65.9654889 74.0612328,65.9654889 C72.8645566,65.9654889 71.8293071,66.6361153 71.3255946,67.6141731 C71.1182695,68.0181696 70.9999897,68.4752231 70.9999897,68.9581159 C70.9999897,69.4410254 71.1182695,69.8980789 71.3255946,70.3020922 C71.8293071,71.2801332 72.8645566,71.9507597 74.0612328,71.9507597 C74.8877471,71.9507597 75.5807108,71.6827848 76.087192,71.2257145 C76.6660375,70.704727 77,69.9375354 77,69.0261351 C77,68.8139407 76.9805332,68.609883 76.944351,68.4140126 L74.0612328,68.4140126 Z"/>
  </g>
</svg>
