<svg xmlns="http://www.w3.org/2000/svg" width="170" height="48" viewBox="0 0 170 48">
  <g fill="#F0C711" fill-rule="evenodd">
    <polygon points="17.03 9.255 13.403 11.162 14.096 7.123 11.162 4.263 15.216 3.674 17.03 0 18.843 3.674 22.898 4.263 19.964 7.123 20.656 11.162" opacity=".283"/>
    <polygon points="126.929 45.316 123.302 47.222 123.995 43.184 121.061 40.324 125.115 39.735 126.929 36.061 128.742 39.735 132.797 40.324 129.863 43.184 130.555 47.222" opacity=".283"/>
    <polygon points="149.915 34.047 137.919 40.354 140.21 26.996 130.505 17.536 143.917 15.587 149.915 3.434 155.913 15.587 169.324 17.536 159.619 26.996 161.91 40.354" opacity=".12"/>
    <polygon points="9.842 23.118 4.821 25.758 5.78 20.166 1.717 16.206 7.331 15.39 9.842 10.303 12.353 15.39 17.967 16.206 13.905 20.166 14.864 25.758" opacity=".149"/>
    <polygon points="2.708 9.423 1.034 10.303 1.354 8.439 0 7.119 1.871 6.847 2.708 5.152 3.545 6.847 5.417 7.119 4.062 8.439 4.382 10.303" opacity=".215"/>
    <path d="M35.8373737 31.7676768L37.5545455 31.7676768 37.5545455 21.8252525 41.0919192 21.8252525 41.0919192 20.3141414 32.2828283 20.3141414 32.2828283 21.8252525 35.8373737 21.8252525 35.8373737 31.7676768zM48.5975207 31.7676768L50.1429752 31.7676768 50.1429752 25.9121212C50.1429752 24.1606061 49.2500459 23.2676768 47.481359 23.2676768 46.210652 23.2676768 45.0944903 23.9717172 44.5449954 24.6414141L44.5449954 20.3141414 42.9995409 20.3141414 42.9995409 31.7676768 44.5449954 31.7676768 44.5449954 25.8434343C44.99146 25.2252525 45.8672176 24.6414141 46.8288338 24.6414141 47.8934802 24.6414141 48.5975207 25.0535354 48.5975207 26.4272727L48.5975207 31.7676768zM57.8889807 31.7676768L57.8889807 30.8575758C57.2364554 31.5787879 56.292011 31.9737374 55.1758494 31.9737374 53.802112 31.9737374 52.2910009 31.0464646 52.2910009 29.2262626 52.2910009 27.3373737 53.7849403 26.5131313 55.1758494 26.5131313 56.292011 26.5131313 57.2536272 26.8737374 57.8889807 27.6121212L57.8889807 26.2383838C57.8889807 25.2080808 57.0475666 24.589899 55.8627181 24.589899 54.9182736 24.589899 54.1112029 24.9505051 53.3728191 25.6888889L52.7031221 24.6242424C53.6303948 23.7141414 54.7637282 23.2676768 56.1031221 23.2676768 57.9061524 23.2676768 59.4344352 24.0575758 59.4344352 26.169697L59.4344352 31.7676768 57.8889807 31.7676768zM57.8889807 29.9474747L57.8889807 28.5393939C57.4253443 27.9212121 56.6182736 27.5949495 55.7596878 27.5949495 54.6435262 27.5949495 53.8536272 28.2646465 53.8536272 29.2434343 53.8536272 30.2222222 54.6435262 30.8919192 55.7596878 30.8919192 56.6182736 30.8919192 57.4253443 30.5656566 57.8889807 29.9474747zM67.6612488 31.7676768L69.2067034 31.7676768 69.2067034 25.9464646C69.2067034 24.1949495 68.2966024 23.2676768 66.5450872 23.2676768 65.2572084 23.2676768 64.1582185 23.9717172 63.6087236 24.6414141L63.6087236 23.4737374 62.063269 23.4737374 62.063269 31.7676768 63.6087236 31.7676768 63.6087236 25.8434343C64.0551882 25.2252525 64.9309458 24.6414141 65.892562 24.6414141 66.9572084 24.6414141 67.6612488 25.0878788 67.6612488 26.4616162L67.6612488 31.7676768zM77.3820018 31.7676768L79.3395776 31.7676768 75.733517 27.2343434 79.3052341 23.4737374 77.3648301 23.4737374 73.36382 27.6808081 73.36382 20.3141414 71.8183654 20.3141414 71.8183654 31.7676768 73.36382 31.7676768 73.36382 29.4666667 74.6173553 28.1959596 77.3820018 31.7676768zM88.8214876 31.7676768L88.8214876 26.9767677 84.3396694 20.3141414 86.3144168 20.3141414 89.6800734 25.4313131 93.0113865 20.3141414 95.0033057 20.3141414 90.5386593 26.9767677 90.5386593 31.7676768 88.8214876 31.7676768zM98.0099173 31.9737374C95.4341597 31.9737374 93.8200183 30.0161616 93.8200183 27.6121212 93.8200183 25.2252525 95.4341597 23.2676768 98.0099173 23.2676768 100.602847 23.2676768 102.199816 25.2252525 102.199816 27.6121212 102.199816 30.0161616 100.602847 31.9737374 98.0099173 31.9737374zM98.0099173 30.6C99.6755739 30.6 100.585675 29.1919192 100.585675 27.6121212 100.585675 26.0494949 99.6755739 24.6414141 98.0099173 24.6414141 96.3614324 24.6414141 95.4341597 26.0494949 95.4341597 27.6121212 95.4341597 29.1919192 96.3614324 30.6 98.0099173 30.6zM109.911478 31.7676768L111.456933 31.7676768 111.456933 23.4737374 109.911478 23.4737374 109.911478 29.4323232C109.447842 30.0505051 108.572084 30.6 107.610468 30.6 106.545822 30.6 105.858953 30.1878788 105.858953 28.8141414L105.858953 23.4737374 104.313499 23.4737374 104.313499 29.3292929C104.313499 31.0808081 105.189256 31.9737374 106.957943 31.9737374 108.22865 31.9737374 109.276125 31.3212121 109.911478 30.6343434L109.911478 31.7676768zM114.205969 28.4191919L115.528191 28.4191919 115.82011 20.3141414 113.91405 20.3141414 114.205969 28.4191919zM113.811019 30.8747475C113.811019 31.4414141 114.274656 31.9393939 114.858494 31.9393939 115.442332 31.9393939 115.940312 31.4414141 115.940312 30.8747475 115.940312 30.2909091 115.442332 29.810101 114.858494 29.810101 114.274656 29.810101 113.811019 30.2909091 113.811019 30.8747475zM35.5986869 13.8558586C36.8921465 13.8558586 37.6919192 13.2338131 38.2152273 12.4636616L37.3759596 12.0193434C37.0303788 12.5722727 36.3787121 12.977096 35.5986869 12.977096 34.2657323 12.977096 33.2388636 11.9206061 33.2388636 10.4494192 33.2388636 8.96835859 34.2657323 7.92174242 35.5986869 7.92174242 36.3787121 7.92174242 37.0303788 8.32656566 37.3759596 8.87949495L38.2152273 8.43517677C37.7017929 7.66502525 36.8921465 7.0429798 35.5986869 7.0429798 33.7226768 7.0429798 32.2218687 8.42530303 32.2218687 10.4494192 32.2218687 12.4735354 33.7226768 13.8558586 35.5986869 13.8558586zM42.2149885 13.7373737L42.2149885 13.2140657C41.8397865 13.6287626 41.2967309 13.8558586 40.654938 13.8558586 39.865039 13.8558586 38.9961501 13.3226768 38.9961501 12.2760606 38.9961501 11.1899495 39.8551653 10.7160101 40.654938 10.7160101 41.2967309 10.7160101 41.8496602 10.9233586 42.2149885 11.3479293L42.2149885 10.5580303C42.2149885 9.96560606 41.7311754 9.61015152 41.0498875 9.61015152 40.506832 9.61015152 40.0427663 9.8175 39.6181956 10.2420707L39.2331198 9.62989899C39.7663017 9.10659091 40.4179683 8.84987374 41.1881198 8.84987374 42.2248623 8.84987374 43.1036249 9.30406566 43.1036249 10.5185354L43.1036249 13.7373737 42.2149885 13.7373737zM42.2149885 12.6907576L42.2149885 11.8811111C41.9483976 11.5256566 41.484332 11.3380556 40.9906451 11.3380556 40.3488522 11.3380556 39.8946602 11.7231313 39.8946602 12.2859343 39.8946602 12.8487374 40.3488522 13.2338131 40.9906451 13.2338131 41.484332 13.2338131 41.9483976 13.0462121 42.2149885 12.6907576zM50.4110882 13.7373737L51.2997245 13.7373737 51.2997245 10.2914394C51.2997245 9.33368687 50.8257851 8.84987374 49.9470225 8.84987374 49.2459872 8.84987374 48.614068 9.29419192 48.3376033 9.7385101 48.1894973 9.22507576 47.7649265 8.84987374 47.0441437 8.84987374 46.3332346 8.84987374 45.7013154 9.34356061 45.5038407 9.63977273L45.5038407 8.96835859 44.6152043 8.96835859 44.6152043 13.7373737 45.5038407 13.7373737 45.5038407 10.3309343C45.7408104 9.98535354 46.204876 9.63977273 46.6689417 9.63977273 47.2712397 9.63977273 47.5082094 10.005101 47.5082094 10.5580303L47.5082094 13.7373737 48.3968457 13.7373737 48.3968457 10.3210606C48.6239417 9.9754798 49.0978811 9.63977273 49.5816942 9.63977273 50.1642447 9.63977273 50.4110882 10.005101 50.4110882 10.5580303L50.4110882 13.7373737zM53.6900666 15.5541414L52.8014302 15.5541414 52.8014302 8.96835859 53.6900666 8.96835859 53.6900666 9.64964646C54.0356474 9.17570707 54.6083242 8.84987374 55.2501171 8.84987374 56.494208 8.84987374 57.3729706 9.78787879 57.3729706 11.3479293 57.3729706 12.9079798 56.494208 13.8558586 55.2501171 13.8558586 54.6280716 13.8558586 54.0751423 13.5695202 53.6900666 13.0462121L53.6900666 15.5541414zM56.4448393 11.3479293C56.4448393 10.3605556 55.9017838 9.63977273 55.0131474 9.63977273 54.4700918 9.63977273 53.9270363 9.95573232 53.6900666 10.3408081L53.6900666 12.3649242C53.9270363 12.7401263 54.4700918 13.0659596 55.0131474 13.0659596 55.9017838 13.0659596 56.4448393 12.3451768 56.4448393 11.3479293zM61.5307117 13.7373737L61.5307117 13.2140657C61.1555097 13.6287626 60.6124541 13.8558586 59.9706612 13.8558586 59.1807622 13.8558586 58.3118733 13.3226768 58.3118733 12.2760606 58.3118733 11.1899495 59.1708884 10.7160101 59.9706612 10.7160101 60.6124541 10.7160101 61.1653834 10.9233586 61.5307117 11.3479293L61.5307117 10.5580303C61.5307117 9.96560606 61.0468985 9.61015152 60.3656107 9.61015152 59.8225551 9.61015152 59.3584895 9.8175 58.9339187 10.2420707L58.548843 9.62989899C59.0820248 9.10659091 59.7336915 8.84987374 60.503843 8.84987374 61.5405854 8.84987374 62.419348 9.30406566 62.419348 10.5185354L62.419348 13.7373737 61.5307117 13.7373737zM61.5307117 12.6907576L61.5307117 11.8811111C61.2641208 11.5256566 60.8000551 11.3380556 60.3063682 11.3380556 59.6645753 11.3380556 59.2103834 11.7231313 59.2103834 12.2859343 59.2103834 12.8487374 59.6645753 13.2338131 60.3063682 13.2338131 60.8000551 13.2338131 61.2641208 13.0462121 61.5307117 12.6907576zM64.3653719 8.16858586C64.6813315 8.16858586 64.9380487 7.92174242 64.9380487 7.60578283 64.9380487 7.28982323 64.6813315 7.03310606 64.3653719 7.03310606 64.0592861 7.03310606 63.7926952 7.28982323 63.7926952 7.60578283 63.7926952 7.92174242 64.0592861 8.16858586 64.3653719 8.16858586zM63.9309275 13.7373737L64.8195638 13.7373737 64.8195638 8.96835859 63.9309275 8.96835859 63.9309275 13.7373737zM66.2817746 14.9617172L66.7063453 14.3100505C67.1012948 14.7642424 67.5851079 14.9419697 68.2367746 14.9419697 68.9773049 14.9419697 69.7178352 14.5865152 69.7178352 13.5793939L69.7178352 12.9573485C69.3525069 13.4312879 68.7897039 13.7768687 68.147911 13.7768687 66.9136938 13.7768687 66.0250574 12.8684848 66.0250574 11.3084343 66.0250574 9.77800505 66.9136938 8.84987374 68.147911 8.84987374 68.7699564 8.84987374 69.3327594 9.14608586 69.7178352 9.6595202L69.7178352 8.96835859 70.6064716 8.96835859 70.6064716 13.5497727C70.6064716 15.1888131 69.4117493 15.6726263 68.2367746 15.6726263 67.4370019 15.6726263 66.8544514 15.5047727 66.2817746 14.9617172zM69.7178352 12.2760606L69.7178352 10.3408081C69.4709918 9.95573232 68.9279362 9.63977273 68.3947544 9.63977273 67.506118 9.63977273 66.9531887 10.3309343 66.9531887 11.3084343 66.9531887 12.2958081 67.506118 12.9869697 68.3947544 12.9869697 68.9279362 12.9869697 69.4709918 12.6611364 69.7178352 12.2760606zM75.3270156 13.7373737L76.215652 13.7373737 76.215652 10.3901768C76.215652 9.38305556 75.6923439 8.84987374 74.6852227 8.84987374 73.9446924 8.84987374 73.3127732 9.25469697 72.9968136 9.63977273L72.9968136 8.96835859 72.1081773 8.96835859 72.1081773 13.7373737 72.9968136 13.7373737 72.9968136 10.3309343C73.2535308 9.9754798 73.7570914 9.63977273 74.3100207 9.63977273 74.9221924 9.63977273 75.3270156 9.8964899 75.3270156 10.6863889L75.3270156 13.7373737zM79.9694674 12.8092424C80.5322705 13.4312879 81.3912856 13.8558586 82.5662604 13.8558586 84.3435331 13.8558586 85.0544422 12.8981061 85.0544422 11.8712374 85.0544422 10.4691667 83.8004775 10.1334596 82.7242402 9.84712121 81.90472 9.63977273 81.1938109 9.45217172 81.1938109 8.85974747 81.1938109 8.30681818 81.6973715 7.93161616 82.428028 7.93161616 83.1389371 7.93161616 83.8300988 8.16858586 84.3336594 8.70176768L84.9063361 7.97111111C84.3237856 7.37868687 83.5240129 7.05285354 82.5070179 7.05285354 81.1345684 7.05285354 80.1768159 7.84275253 80.1768159 8.92886364 80.1768159 10.2716919 81.4011594 10.5777778 82.4576493 10.8542424 83.2969169 11.0714646 84.047321 11.2689394 84.047321 11.960101 84.047321 12.4340404 83.672119 12.977096 82.6057553 12.977096 81.6874977 12.977096 80.9765886 12.5426515 80.5322705 12.0489646L79.9694674 12.8092424zM89.4886479 13.7373737L90.3772842 13.7373737 90.3772842 8.96835859 89.4886479 8.96835859 89.4886479 12.3945455C89.222057 12.75 88.7184964 13.0659596 88.1655671 13.0659596 87.5533954 13.0659596 87.1584459 12.8289899 87.1584459 12.0390909L87.1584459 8.96835859 86.2698095 8.96835859 86.2698095 12.335303C86.2698095 13.3424242 86.7733701 13.8558586 87.7903651 13.8558586 88.5210216 13.8558586 89.1233196 13.4806566 89.4886479 13.0857071L89.4886479 13.7373737zM91.5827778 11.3479293C91.5827778 12.7796212 92.5701516 13.8558586 94.0117172 13.8558586 94.9102273 13.8558586 95.4532829 13.4806566 95.7988637 13.0165909L95.2064394 12.4735354C94.9201011 12.8684848 94.5350253 13.0659596 94.0512122 13.0659596 93.1132071 13.0659596 92.5109091 12.335303 92.5109091 11.3479293 92.5109091 10.3605556 93.1132071 9.63977273 94.0512122 9.63977273 94.5350253 9.63977273 94.9201011 9.82737374 95.2064394 10.232197L95.7988637 9.68914141C95.4532829 9.22507576 94.9102273 8.84987374 94.0117172 8.84987374 92.5701516 8.84987374 91.5827778 9.91623737 91.5827778 11.3479293zM96.5699128 11.3479293C96.5699128 12.7796212 97.5572865 13.8558586 98.9988522 13.8558586 99.8973623 13.8558586 100.440418 13.4806566 100.785999 13.0165909L100.193574 12.4735354C99.907236 12.8684848 99.5221603 13.0659596 99.0383472 13.0659596 98.1003421 13.0659596 97.4980441 12.335303 97.4980441 11.3479293 97.4980441 10.3605556 98.1003421 9.63977273 99.0383472 9.63977273 99.5221603 9.63977273 99.907236 9.82737374 100.193574 10.232197L100.785999 9.68914141C100.440418 9.22507576 99.8973623 8.84987374 98.9988522 8.84987374 97.5572865 8.84987374 96.5699128 9.91623737 96.5699128 11.3479293zM101.557048 11.3479293C101.557048 9.96560606 102.554295 8.84987374 103.946492 8.84987374 105.378184 8.84987374 106.266821 9.96560606 106.266821 11.4269192L106.266821 11.6441414 102.495053 11.6441414C102.564169 12.4537879 103.156593 13.125202 104.114346 13.125202 104.617906 13.125202 105.170836 12.9277273 105.52629 12.562399L105.940987 13.1449495C105.467048 13.6090152 104.795634 13.8558586 104.025482 13.8558586 102.603664 13.8558586 101.557048 12.8487374 101.557048 11.3479293zM103.946492 9.5805303C102.98874 9.5805303 102.534548 10.3506818 102.485179 11.0023485L105.397932 11.0023485C105.378184 10.3704293 104.953613 9.5805303 103.946492 9.5805303zM107.057617 13.1153283C107.54143 13.6090152 108.242466 13.8558586 109.042238 13.8558586 110.296203 13.8558586 110.967617 13.2140657 110.967617 12.3945455 110.967617 11.2985606 109.980243 11.0714646 109.150849 10.8838636 108.558425 10.7456313 108.044991 10.607399 108.044991 10.192702 108.044991 9.80762626 108.420193 9.57065657 109.022491 9.57065657 109.624789 9.57065657 110.157971 9.8175 110.434435 10.1532071L110.829385 9.53116162C110.424562 9.14608586 109.832137 8.84987374 109.012617 8.84987374 107.847516 8.84987374 107.195849 9.5015404 107.195849 10.2618182 107.195849 11.2886869 108.143728 11.5059091 108.953375 11.6935101 109.565546 11.8317424 110.108602 11.9897222 110.108602 12.4636616 110.108602 12.8684848 109.753147 13.1449495 109.081733 13.1449495 108.43994 13.1449495 107.808021 12.8191162 107.482188 12.4636616L107.057617 13.1153283zM111.768287 13.1153283C112.252101 13.6090152 112.953136 13.8558586 113.752909 13.8558586 115.006873 13.8558586 115.678287 13.2140657 115.678287 12.3945455 115.678287 11.2985606 114.690914 11.0714646 113.86152 10.8838636 113.269096 10.7456313 112.755661 10.607399 112.755661 10.192702 112.755661 9.80762626 113.130863 9.57065657 113.733161 9.57065657 114.335459 9.57065657 114.868641 9.8175 115.145106 10.1532071L115.540055 9.53116162C115.135232 9.14608586 114.542808 8.84987374 113.723287 8.84987374 112.558186 8.84987374 111.90652 9.5015404 111.90652 10.2618182 111.90652 11.2886869 112.854399 11.5059091 113.664045 11.6935101 114.276217 11.8317424 114.819272 11.9897222 114.819272 12.4636616 114.819272 12.8684848 114.463818 13.1449495 113.792404 13.1449495 113.150611 13.1449495 112.518692 12.8191162 112.192858 12.4636616L111.768287 13.1153283z"/>
  </g>
</svg>
