<svg xmlns="http://www.w3.org/2000/svg" width="20" height="20" viewBox="0 0 20 20" xmlns:xlink="http://www.w3.org/1999/xlink">
  <defs>
    <rect id="a" width="20" height="20"/>
    <mask id="b" width="20" height="20" x="0" y="0" fill="white">
      <use xlink:href="#a"/>
    </mask>
  </defs>
  <g fill="none" fill-rule="evenodd">
    <rect width="24" height="24"/>
    <use fill="#FFFFFF" stroke="#007DBC" stroke-width="4" mask="url(#b)" xlink:href="#a"/>
    <polyline stroke="#007DBC" stroke-width="2" points="0 3.333 3.333 6.667 10 0" transform="translate(5 7)"/>
  </g>
</svg>
