<svg width="19px" height="28px" viewBox="0 0 19 28" version="1.1" xmlns="http://www.w3.org/2000/svg" xmlns:xlink="http://www.w3.org/1999/xlink">
    <g id="Giving" stroke="none" stroke-width="1.5" fill="none" fill-rule="evenodd">
        <g id="Alumni---Giving---My-Giving" transform="translate(-205.000000, -1416.000000)">
            <g id="Give-to-GU" transform="translate(30.000000, 1408.000000)">
                <g id="Group" transform="translate(176.000000, 9.000000)">
                    <path d="M0,16.8239264 L0,3.46666667 C0,2.51333333 0.784615385,1.73333333 1.74358974,1.73333333 C2.7025641,1.73333333 3.48717949,2.51333333 3.48717949,3.46666667 L3.48717949,8.54292379" id="Shape" stroke="#FFFEFE" stroke-linecap="round"></path>
                    <path d="M3.48717949,6.06666667 L3.48717949,2.6 C3.48717949,1.64666667 4.27179487,0.866666667 5.23076923,0.866666667 L5.23076923,0.866666667 C6.18974359,0.866666667 6.97435897,1.64666667 6.97435897,2.6 L6.97435897,6.06666667" id="Shape" stroke="#FFFEFE" stroke-linecap="round"></path>
                    <path d="M6.97435897,6.93333333 L6.97435897,1.98095238 C6.97435897,0.891428571 7.75897436,0 8.71794872,0 L8.71794872,0 C9.67692308,0 10.4615385,0.891428571 10.4615385,1.98095238 L10.4615385,6.93333333" id="Shape" stroke="#FFFEFE" stroke-linecap="round"></path>
                    <path d="M10.4615385,6.06666667 L10.4615385,2.6 C10.4615385,1.64666667 11.2461538,0.866666667 12.2051282,0.866666667 C13.1641026,0.866666667 13.9487179,1.64666667 13.9487179,2.6 L13.9487179,7.58383663" id="Shape" stroke="#FFFEFE" stroke-linecap="round"></path>
                    <path d="M0,17.3333333 L0,17.7666667 C0,22.2733333 3.74871795,26 8.28205128,26 C12.8153846,26 16.5641026,22.2733333 16.5641026,17.7666667 L16.5641026,17.3333333 L16.5641026,9.53333333 C14.5589744,9.53333333 13.0769231,11.0066667 13.0769231,13" id="Shape" stroke="#FFFEFE" stroke-linecap="round" stroke-linejoin="round"></path>
                    <path d="M9.32548077,12.35 C8.63485577,12.35 7.97079327,12.6498387 7.51923077,13.195 C7.06766827,12.6498387 6.40360577,12.35 5.71298077,12.35 C4.35829327,12.35 3.26923077,13.4948387 3.26923077,14.885 C3.26923077,17.2564516 7.17391827,20.6091935 7.35985577,20.7454839 C7.41298077,20.8 7.46610577,20.8 7.51923077,20.8 C7.57235577,20.8 7.65204327,20.7727419 7.67860577,20.7454839 C7.86454327,20.6091935 11.7692308,17.2291935 11.7692308,14.885 C11.7692308,13.4948387 10.6801683,12.35 9.32548077,12.35 Z" id="Shape" fill="#FFFEFE" fill-rule="nonzero"></path>
                </g>
            </g>
        </g>
    </g>
</svg>
