<?xml version="1.0" encoding="utf-8"?>
<!DOCTYPE svg PUBLIC "-//W3C//DTD SVG 1.1//EN" "http://www.w3.org/Graphics/SVG/1.1/DTD/svg11.dtd">
<svg version="1.1" xmlns="http://www.w3.org/2000/svg" xmlns:xlink="http://www.w3.org/1999/xlink" width="512" height="512" viewBox="0 0 512 512">
  <path fill="#32506d" d="M464 0h-416c-26.4 0-48 21.6-48 48v416c0 26.4 21.6 48 48 48h416c26.4 0 48-21.6 48-48v-416c0-26.4-21.6-48-48-48zM365.9 412.3c-15.1 7.1-28.8 12.1-41 15-12.2 2.8-25.5 4.3-39.7 4.3-16.2 0-25.7-2-38.1-6.1s-23-9.9-31.8-17.4c-8.8-7.6-14.8-15.6-18.2-24.1s-5.1-20.8-5.1-37v-123.9h-48v-50c13.9-4.5 30-11 39.8-19.4 9.9-8.4 17.9-18.5 23.8-30.3 6-11.8 10.1-26.8 12.4-45h50.2v81.6h81.8v63.1h-81.7v90.6c0 20.5-0.3 32.3 1.9 38.1s7.6 11.8 13.5 15.2c7.8 4.7 16.8 7 26.8 7 17.9 0 35.7-5.8 53.4-17.4v55.7z"></path>
</svg>
