<svg xmlns="http://www.w3.org/2000/svg" width="32" height="32" viewBox="0 0 32 32">
  <g fill="none" fill-rule="evenodd" stroke="#FFFFFF" transform="translate(1 1)" stroke-linecap="round" stroke-linejoin="round">
    <circle cx="15" cy="15" r="15" fill="#012849" stroke-width="2"/>
    <path d="M11 5.6C12.2 5.1 13.6 4.8 15 4.8 20.6 4.8 25.2 9.4 25.2 15M4.8 15C4.8 13.6 5.1 12.2 5.6 11M12.9 12.9L7.4 7.4"/>
    <circle cx="15" cy="15" r="3"/>
  </g>
</svg>
