<svg xmlns="http://www.w3.org/2000/svg" width="32" height="32" viewBox="0 0 32 32">
  <g fill="none" fill-rule="evenodd">
    <path fill="#012849" stroke="#FFFFFF" stroke-width="2" d="M23,1 L26,1 C27.1,1 28,1.9 28,3 L28,29 C28,30.1 27.1,31 26,31 L23,31"/>
    <path stroke="#FFFFFF" d="M23.6124058,1.78680694 L23.5092983,30.5028972" stroke-linecap="round" stroke-linejoin="round"/>
    <polyline fill="#012849" stroke="#FFFFFF" stroke-width="2" points="23 31 4 31 4 1 4 1 23 1"/>
    <polygon fill="#FFFFFF" points="11.078 22 11.078 15.841 17.868 15.841 17.868 14.828 11.078 14.828 11.078 10.013 18 10.013 18 9 10 9 10 22"/>
    <path stroke="#FFFFFF" d="M24 6.11818182L26.8734701 6.11818182M24 10.1181818L26.8734701 10.1181818" stroke-linecap="round" stroke-linejoin="round"/>
  </g>
</svg>
