<?xml version="1.0" encoding="UTF-8"?>
<svg width="32px" height="32px" viewBox="0 0 32 32" version="1.1" xmlns="http://www.w3.org/2000/svg" xmlns:xlink="http://www.w3.org/1999/xlink">
  <g fill="none" fill-rule="evenodd" stroke="#fff" stroke-width="2" transform="translate(1 1)">
    <path d="M6,17 L0,17 L0,27 C0,28.7 1.3,30 3,30"/>
    <path d="M6 0L6 27C6 28.7 4.7 30 3 30L27 30C28.7 30 30 28.7 30 27L30 0 6 0 6 0zM21 5L25 5M21 10L25 10M11 15L25 15"/>
    <rect width="6" height="5" x="11" y="5"/>
    <path d="M15 25L11 25M15 20L11 20"/>
    <rect width="6" height="5" x="19" y="20"/>
  </g>
</svg>
